…
_If you are viewing this book in a browser you should see an interactive table. Take 5 minutes to study the data and 2 additional minutes to discuss what you see with one of your fellow course participants._

Try accessing the variable called `shipman_murders` by typing it's name in the Console. If all goes well this is what you see:


```
## # A tibble: 215 x 10
##    DateofDeath Name    Age PlaceofDeath Decision yearOfDeath gender
##    <chr>       <chr> <dbl> <chr>        <chr>          <dbl>  <dbl>
##  1 17-Mar-75   Eva ~    70 Own home     Unlawfu~        1975      0
##  2 07-Aug-78   Sara~    86 Own home     Unlawfu~        1978      0
##  3 30-Aug-78   Mary~    73 Own home     Unlawfu~        1978      0
##  4 07-Dec-78   Haro~    73 Own home     Unlawfu~        1978      1
##  5 20-Dec-78   Anni~    88 Own home     Unlawfu~        1978      0
##  6 10-Aug-79   Alic~    76 Own home     Unlawfu~        1979      0
##  7 28-Nov-79   Jack~    77 Hospital     Unlawfu~        1979      1
##  8 18-Apr-81   May ~    84 Own home     Unlawfu~        1981      0
##  9 26-Aug-81   Eliz~    81 Own home     Unlawfu~        1981      0
## 10 04-Jan-83   Perc~    90 Own home     Unlawfu~        1983      1
## # ... with 205 more rows, and 3 more variables: fractionalDeathYear <dbl>,
## #   ageBracket <chr>, gender2 <chr>
```
…
<img src="ch03-edacase_files/figure-html/unnamed-chunk-10-1.png" width="672" />

## Let's investigate the age distributions
Firstly, only those of the females and secondly all victims. The dashed blue line indicates the median age, the solid blue line indicates the mean. The graph shows a frequency distribution. 


```r
shipman_murders
```

```
## # A tibble: 215 x 12
##    dateofdeath name    age placeofdeath decision yearofdeath gender
##    <chr>       <chr> <dbl> <chr>        <chr>          <dbl>  <dbl>
##  1 17-Mar-75   eval~    70 Own home     Unlawfu~        1975      0
##  2 07-Aug-78   sara~    86 Own home     Unlawfu~        1978      0
##  3 30-Aug-78   mary~    73 Own home     Unlawfu~        1978      0
##  4 07-Dec-78   haro~    73 Own home     Unlawfu~        1978      1
##  5 20-Dec-78   anni~    88 Own home     Unlawfu~        1978      0
##  6 10-Aug-79   alic~    76 Own home     Unlawfu~        1979      0
##  7 28-Nov-79   jack~    77 Hospital     Unlawfu~        1979      1
##  8 18-Apr-81   mays~    84 Own home     Unlawfu~        1981      0
##  9 26-Aug-81   eliz~    81 Own home     Unlawfu~        1981      0
## 10 04-Jan-83   perc~    90 Own home     Unlawfu~        1983      1
## # ... with 205 more rows, and 5 more variables: fractionaldeathyear <dbl>,
## #   agebracket <chr>, gender2 <chr>, names <chr>, gender_recoded <fct>
```
…
