…
```
## Warning: 1 parsing failure.
## row col   expected    actual                                                                     file
##  55  -- 41 columns 1 columns 'C:/Users/mteunis/workspaces/staRters/data/CISID_pertussis_10082018.csv'
```

### Inspect data {-}

```r
pertussis_data
```

```
## # A tibble: 55 x 41
##       X1 X2    `1980` `1981` `1982` `1983` `1984` `1985` `1986` `1987` `1988`
##    <dbl> <chr> <lgl>  <lgl>  <lgl>  <lgl>  <lgl>  <lgl>  <lgl>  <lgl>  <lgl> 
##  1     2 Alba~ NA     NA     NA     NA     NA     NA     NA     NA     NA    
##  2     5 Ando~ NA     NA     NA     NA     NA     NA     NA     NA     NA    
##  3    10 Arme~ NA     NA     NA     NA     NA     NA     NA     NA     NA    
##  4    13 Aust~ NA     NA     NA     NA     NA     NA     NA     NA     NA    
##  5    14 Azer~ NA     NA     NA     NA     NA     NA     NA     NA     NA    
##  6    19 Bela~ NA     NA     NA     NA     NA     NA     NA     NA     NA    
##  7    20 Belg~ NA     NA     NA     NA     NA     NA     NA     NA     NA    
##  8    26 Bosn~ NA     NA     NA     NA     NA     NA     NA     NA     NA    
##  9    31 Bulg~ NA     NA     NA     NA     NA     NA     NA     NA     NA    
## 10    51 Croa~ NA     NA     NA     NA     NA     NA     NA     NA     NA    
## # ... with 45 more rows, and 30 more variables: `1989` <lgl>, `1990` <dbl>,
## #   `1991` <dbl>, `1992` <dbl>, `1993` <dbl>, `1994` <dbl>, `1995` <dbl>,
## #   `1996` <dbl>, `1997` <dbl>, `1998` <dbl>, `1999` <dbl>, `2000` <dbl>,
## #   `2001` <dbl>, `2002` <dbl>, `2003` <dbl>, `2004` <dbl>, `2005` <dbl>,
## #   `2006` <dbl>, `2007` <dbl>, `2008` <dbl>, `2009` <dbl>, `2010` <dbl>,
## #   `2011` <dbl>, `2012` <dbl>, `2013` <dbl>, `2014` <lgl>, `2015` <lgl>,
## #   `2016` <lgl>, `2017` <lgl>, `2018` <lgl>
```
…
- The first few lines of the file have comments indicated with `#`
- There are 53 countries in the dataset
- There is no data for the years 1980-1989 and 2014-2018
- The data is not in `tidy` format
- Missing values are indicated with __empty cells__
- It is not a good idea to have a column name starting with a digit; why?


```r
pertussis_data
```

```
## # A tibble: 55 x 41
##       X1 X2    `1980` `1981` `1982` `1983` `1984` `1985` `1986` `1987` `1988`
##    <dbl> <chr> <lgl>  <lgl>  <lgl>  <lgl>  <lgl>  <lgl>  <lgl>  <lgl>  <lgl> 
##  1     2 Alba~ NA     NA     NA     NA     NA     NA     NA     NA     NA    
##  2     5 Ando~ NA     NA     NA     NA     NA     NA     NA     NA     NA    
##  3    10 Arme~ NA     NA     NA     NA     NA     NA     NA     NA     NA    
##  4    13 Aust~ NA     NA     NA     NA     NA     NA     NA     NA     NA    
##  5    14 Azer~ NA     NA     NA     NA     NA     NA     NA     NA     NA    
##  6    19 Bela~ NA     NA     NA     NA     NA     NA     NA     NA     NA    
##  7    20 Belg~ NA     NA     NA     NA     NA     NA     NA     NA     NA    
##  8    26 Bosn~ NA     NA     NA     NA     NA     NA     NA     NA     NA    
##  9    31 Bulg~ NA     NA     NA     NA     NA     NA     NA     NA     NA    
## 10    51 Croa~ NA     NA     NA     NA     NA     NA     NA     NA     NA    
## # ... with 45 more rows, and 30 more variables: `1989` <lgl>, `1990` <dbl>,
## #   `1991` <dbl>, `1992` <dbl>, `1993` <dbl>, `1994` <dbl>, `1995` <dbl>,
## #   `1996` <dbl>, `1997` <dbl>, `1998` <dbl>, `1999` <dbl>, `2000` <dbl>,
## #   `2001` <dbl>, `2002` <dbl>, `2003` <dbl>, `2004` <dbl>, `2005` <dbl>,
## #   `2006` <dbl>, `2007` <dbl>, `2008` <dbl>, `2009` <dbl>, `2010` <dbl>,
## #   `2011` <dbl>, `2012` <dbl>, `2013` <dbl>, `2014` <lgl>, `2015` <lgl>,
## #   `2016` <lgl>, `2017` <lgl>, `2018` <lgl>
```
…
``` ` ``` 


```r
pertussis_data_tidy <- pertussis_data %>% 
  gather(`1980`:`2018`, key = "year", 
                        value = "annual_pertussis_cases") %>%
  mutate(annual_pertussis_cases = as.numeric(annual_pertussis_cases
                                             ))
pertussis_data_tidy
```

```
## # A tibble: 2,145 x 4
##       X1 X2                     year  annual_pertussis_cases
##    <dbl> <chr>                  <chr>                  <dbl>
##  1     2 Albania                1980                      NA
##  2     5 Andorra                1980                      NA
##  3    10 Armenia                1980                      NA
##  4    13 Austria                1980                      NA
##  5    14 Azerbaijan             1980                      NA
##  6    19 Belarus                1980                      NA
##  7    20 Belgium                1980                      NA
##  8    26 Bosnia and Herzegovina 1980                      NA
##  9    31 Bulgaria               1980                      NA
## 10    51 Croatia                1980                      NA
## # ... with 2,135 more rows
```
…
```r
# pertussis_data_tidy
# gapminder
gapminder$year <- as.character(gapminder$year)

join <-   dplyr::inner_join (gapminder, pertussis_data_tidy, by = c("country", "year")) %>%
  na.omit()
join
```

```
## # A tibble: 861 x 10
##    country year  infant_mortality life_expectancy fertility population     gdp
##    <chr>   <chr>            <dbl>           <dbl>     <dbl>      <dbl>   <dbl>
##  1 Albania 1990              35.1            73.3      2.97    3281453 3.22e 9
##  2 Armenia 1990              42.5            70.1      2.54    3544695 2.82e 9
##  3 Austria 1990               8              75.7      1.46    7706571 1.47e11
##  4 Azerba~ 1990              75.5            65.6      2.97    7216503 8.95e 9
##  5 Belarus 1990              13.5            70.5      1.89   10231983 1.44e10
##  6 Belgium 1990               8.3            76        1.58    9978241 1.87e11
##  7 Bulgar~ 1990              18.4            71.4      1.77    8821111 1.46e10
##  8 Croatia 1990              11.2            72.6      1.67    4776374 2.51e10
##  9 Cyprus  1990               9.9            76.8      2.41     766611 6.19e 9
## 10 Czech ~ 1990              12.7            71.8      1.82   10323701 5.63e10
## # ... with 851 more rows, and 3 more variables: continent <fct>, region <fct>,
## #   annual_pertussis_cases <dbl>
```
…
```r
#join$year %>% as_factor %>% levels()
#join$country %>% as_factor() %>% levels()

booleans_demo <- join %>%
  dplyr::filter(country == "Netherlands" |
         country == "Belarus" &
         year == "1990" |                 ## | is OR in R
         year == "1995" &                 ## & is AND in R   
         !annual_pertussis_cases < 100)   ## ! is NOT in R (not smaller                                                             than 100)
booleans_demo
```

```
## # A tibble: 40 x 10
##    country year  infant_mortality life_expectancy fertility population     gdp
##    <chr>   <chr>            <dbl>           <dbl>     <dbl>      <dbl>   <dbl>
##  1 Belarus 1990              13.5            70.5      1.89   10231983 1.44e10
##  2 Nether~ 1990               6.8            77        1.62   14915139 2.82e11
##  3 Nether~ 1991               6.5            77.2      1.61   15019184 2.89e11
##  4 Nether~ 1992               6.3            77.3      1.59   15128288 2.94e11
##  5 Nether~ 1993               6.1            77.2      1.57   15239262 2.97e11
##  6 Nether~ 1994               5.8            77.5      1.57   15347792 3.06e11
##  7 Albania 1995              29.1            73.7      2.72    3106727 2.83e 9
##  8 Belarus 1995              14.4            68.2      1.47   10159731 9.38e 9
##  9 Bosnia~ 1995              12.3            67        1.53    3879278 1.62e 9
## 10 Croatia 1995               8.7            73        1.52    4616762 1.82e10
## # ... with 30 more rows, and 3 more variables: continent <fct>, region <fct>,
## #   annual_pertussis_cases <dbl>
```
…
 - Sort(rank) your data ascending or descending  
 - `{dplyr}` verb to use is `arrange()`, 
 - In conjunction with the `desc()` function if you want to rank in descending order 
 - `arrange()` takes one or multiple variable names for which you want to sort

#### Example `arrange()` {-}

```r
## ascending
join_filtered %>%
  arrange(annual_pertussis_cases)
```

```
## # A tibble: 61 x 3
##    year  country annual_pertussis_cases
##    <chr> <chr>                    <dbl>
##  1 2002  Norway                    3170
##  2 1992  Ukraine                   3363
##  3 1997  Italy                     3364
##  4 1994  Ukraine                   3374
##  5 2000  Norway                    3417
##  6 2010  Norway                    3565
##  7 1996  Spain                     3577
##  8 1998  Italy                     3632
##  9 1995  Spain                     3741
## 10 1999  Italy                     3797
## # ... with 51 more rows
```

```r
## descending
join_filtered %>%
  arrange(desc(annual_pertussis_cases))
```

```
## # A tibble: 61 x 3
##    year  country     annual_pertussis_cases
##    <chr> <chr>                        <dbl>
##  1 1994  Switzerland                  26000
##  2 1995  Switzerland                  20000
##  3 1991  Italy                        19356
##  4 1990  Italy                        16992
##  5 1995  Italy                        14359
##  6 1994  Italy                        13360
##  7 1994  Sweden                       13187
##  8 1997  Switzerland                  13000
##  9 1998  Switzerland                  13000
## 10 1993  Sweden                       11542
## # ... with 51 more rows
```
…
```r
join_new <- join %>% 
  dplyr::mutate(incidence = 
                  (annual_pertussis_cases/population)*100000) %>%
  dplyr::select(incidence, 
         annual_pertussis_cases, 
         country, year) %>%
  arrange(desc(incidence))
join_new 
```

```
## # A tibble: 861 x 4
##    incidence annual_pertussis_cases country     year 
##        <dbl>                  <dbl> <chr>       <chr>
##  1      374.                  26000 Switzerland 1994 
##  2      285.                  20000 Switzerland 1995 
##  3      183.                  13000 Switzerland 1997 
##  4      183.                  13000 Switzerland 1998 
##  5      169.                   7737 Norway      2004 
##  6      163.                  11500 Switzerland 1996 
##  7      154.                  11000 Switzerland 1999 
##  8      150.                  13187 Sweden      1994 
##  9      141.                   6587 Norway      2006 
## 10      133.                  11432 Sweden      1991 
## # ... with 851 more rows
```
…
