…
```
## # A tibble: 3,110 x 8
##    LOCATION INDICATOR SUBJECT MEASURE FREQUENCY  TIME Value `Flag Codes`
##    <chr>    <chr>     <chr>   <chr>   <chr>     <dbl> <dbl> <lgl>       
##  1 AUS      TAXREV    TOT     PC_GDP  A          1965  20.6 NA          
##  2 AUS      TAXREV    TOT     PC_GDP  A          1966  19.9 NA          
##  3 AUS      TAXREV    TOT     PC_GDP  A          1967  20.4 NA          
##  4 AUS      TAXREV    TOT     PC_GDP  A          1968  20.4 NA          
##  5 AUS      TAXREV    TOT     PC_GDP  A          1969  20.7 NA          
##  6 AUS      TAXREV    TOT     PC_GDP  A          1970  21.1 NA          
##  7 AUS      TAXREV    TOT     PC_GDP  A          1971  21.9 NA          
##  8 AUS      TAXREV    TOT     PC_GDP  A          1972  21.4 NA          
##  9 AUS      TAXREV    TOT     PC_GDP  A          1973  22.5 NA          
## 10 AUS      TAXREV    TOT     PC_GDP  A          1974  24.6 NA          
## # ... with 3,100 more rows
```
…
