…
<img src="ch11-assumptions_files/figure-html/unnamed-chunk-18-1.png" width="672" />

`{ggplot2}` works best with long or so-called stacked datasets.

```r
dlf_long <- dlf %>% 
  tidyr::gather(day1:day3, key = "days", value = "hygiene_score")
dlf_long
```

```
## # A tibble: 2,430 x 4
##    ticknumb gender days  hygiene_score
##       <dbl> <chr>  <chr>         <dbl>
##  1     2111 Male   day1           2.64
##  2     2229 Female day1           0.97
##  3     2338 Male   day1           0.84
##  4     2384 Female day1           3.03
##  5     2401 Female day1           0.88
##  6     2405 Male   day1           0.85
##  7     2467 Female day1           1.56
##  8     2478 Female day1           3.02
##  9     2490 Male   day1           2.29
## 10     2504 Female day1           1.11
## # ... with 2,420 more rows
```
…
