…
## Data 

For this chapter we use data from the 'Freie Universitaet' Berlin downloaded from: https://www.geo.fu-berlin.de/en/v/soga/Basics-of-statistics/Continous-Random-Variables/The-Standard-Normal-Distribution/The-Standard-Normal-Distribution-An-Example/index.html 

```r
data_students <- read.csv("https://userpage.fu-berlin.de/soga/200/2010_data_sets/students.csv") %>%
  as_tibble()
data_students
```

```
## # A tibble: 8,239 x 16
##    stud.id name  gender   age height weight religion nc.score semester major
##      <int> <chr> <chr>  <int>  <int>  <dbl> <chr>       <dbl> <chr>    <chr>
##  1  833917 Gonz~ Female    19    160   64.8 Muslim       1.91 1st      Poli~
##  2  898539 Loza~ Female    19    172   73   Other        1.56 2nd      Soci~
##  3  379678 Will~ Female    22    168   70.6 Protest~     1.24 3rd      Soci~
##  4  807564 Nem,~ Male      19    183   79.7 Other        1.37 2nd      Envi~
##  5  383291 Powe~ Female    21    175   71.4 Catholic     1.46 1st      Envi~
##  6  256074 Pere~ Male      19    189   85.8 Catholic     1.34 2nd      Poli~
##  7  754591 Clar~ Female    21    156   65.9 Protest~     1.11 2nd      Poli~
##  8  146494 Alle~ Female    21    167   65.7 Other        2.03 3rd      Poli~
##  9  723584 Trac~ Male      18    195   94.4 Other        1.29 3rd      Econ~
## 10  314281 Nimm~ Female    18    165   66   Orthodox     1.19 2nd      Envi~
## # ... with 8,229 more rows, and 6 more variables: minor <chr>, score1 <int>,
## #   score2 <int>, online.tutorial <int>, graduated <int>, salary <dbl>
```
…
We already saw that gender makes a difference for the distribution of height. In the exploratory graphs, we see again the distributions looking normal if you split by gender. Of course, only looking at a distribution will not tell you whether the data is normally distributed. In the previous chapter (\@ref(assumptions)) we saw a more formal way of determining the nature of this distribution. For the remainder of this chapter we will be working with observations from the `data_students` that are labeled 'Female' in the `gender` variable.   

Here we store the 'Female' data in a separate data frame and transform the female sample distribution to a standard normal distribution.

```r
females <- data_students %>%
  dplyr::filter(gender == "Female") %>%
  as_tibble()

females
```

```
## # A tibble: 4,110 x 16
##    stud.id name  gender   age height weight religion nc.score semester major
##      <int> <chr> <chr>  <int>  <int>  <dbl> <chr>       <dbl> <chr>    <chr>
##  1  833917 Gonz~ Female    19    160   64.8 Muslim       1.91 1st      Poli~
##  2  898539 Loza~ Female    19    172   73   Other        1.56 2nd      Soci~
##  3  379678 Will~ Female    22    168   70.6 Protest~     1.24 3rd      Soci~
##  4  383291 Powe~ Female    21    175   71.4 Catholic     1.46 1st      Envi~
##  5  754591 Clar~ Female    21    156   65.9 Protest~     1.11 2nd      Poli~
##  6  146494 Alle~ Female    21    167   65.7 Other        2.03 3rd      Poli~
##  7  314281 Nimm~ Female    18    165   66   Orthodox     1.19 2nd      Envi~
##  8  200803 Lang~ Female    22    162   66.8 Other        1.04 4th      Econ~
##  9  444907 Rodr~ Female    18    172   66.8 Other        3.81 3rd      Envi~
## 10  317812 Lope~ Female    20    158   64.4 Catholic     2.5  6th      Envi~
## # ... with 4,100 more rows, and 6 more variables: minor <chr>, score1 <int>,
## #   score2 <int>, online.tutorial <int>, graduated <int>, salary <dbl>
```
…
