Chapter 7 Introduction to R | staRters; An introductory workshop for analysis of data with R
…
Luckely, we do not have to worry about math too much, because most functions that we need are build into R. Here we use the function rnorm() to generate a normally distributed series of numbers. To inspect how we can use this function type ?rnrom in the Console.

## for setting the random number generator - to increase reproducibility
## to get help
# ?rnorm
set.seed(1234)
normals <- rnorm(n = 1000, mean = 5, sd = 1.36)
normals_2 <- rnorm(1000, mean = 1.5, sd = 1.42)

df <- tibble(A = normals,
             B = normals_2)

df

## # A tibble: 1,000 x 2
##        A      B
##    <dbl>  <dbl>
##  1  3.36 -0.212
##  2  5.38  1.93 
##  3  6.47 -0.686
##  4  1.81  2.40 
##  5  5.58  2.50 
##  6  5.69 -1.21 
##  7  4.22  2.83 
##  8  4.26  1.18 
##  9  4.23  0.543
## 10  3.79  2.13 
## # ... with 990 more rows
…
