Chapter 14 Sampling, Probability distributions and bootstrapping | README
…
— END OF EXERCISE —

14.5 Z-transformation of the female observations

Here we transform the female sample distribution to a standard normal distribution.

females <- data_students %>%
  dplyr::filter(gender == "Female") %>%
  as_tibble()

females

## # A tibble: 4,110 x 16
##    stud.id name  gender   age height weight religion nc.score semester major
##      <int> <chr> <chr>  <int>  <int>  <dbl> <chr>       <dbl> <chr>    <chr>
##  1  833917 Gonz~ Female    19    160   64.8 Muslim       1.91 1st      Poli~
##  2  898539 Loza~ Female    19    172   73   Other        1.56 2nd      Soci~
##  3  379678 Will~ Female    22    168   70.6 Protest~     1.24 3rd      Soci~
##  4  383291 Powe~ Female    21    175   71.4 Catholic     1.46 1st      Envi~
##  5  754591 Clar~ Female    21    156   65.9 Protest~     1.11 2nd      Poli~
##  6  146494 Alle~ Female    21    167   65.7 Other        2.03 3rd      Poli~
##  7  314281 Nimm~ Female    18    165   66   Orthodox     1.19 2nd      Envi~
##  8  200803 Lang~ Female    22    162   66.8 Other        1.04 4th      Econ~
##  9  444907 Rodr~ Female    18    172   66.8 Other        3.81 3rd      Envi~
## 10  317812 Lope~ Female    20    158   64.4 Catholic     2.5  6th      Envi~
## # ... with 4,100 more rows, and 6 more variables: minor <chr>, score1 <int>,
## #   score2 <int>, online.tutorial <int>, graduated <int>, salary <dbl>
…
